ParteD/simulation/qsim/ParteD.msim.vcd
$comment
	File created using the following command:
		vcd file ParteD.msim.vcd -direction
$end
$date
	Mon Oct 27 09:10:27 2025
$end
$version
	ModelSim Version 10.1d
$end
$timescale
	1ps
$end
$scope module parted_vhd_vec_tst $end
$var wire 1 ! a [1] $end
$var wire 1 " a [0] $end
$var wire 1 # b [1] $end
$var wire 1 $ b [0] $end
$var wire 1 % producto_signed [3] $end
$var wire 1 & producto_signed [2] $end
$var wire 1 ' producto_signed [1] $end
$var wire 1 ( producto_signed [0] $end
$var wire 1 ) producto_unsigned [3] $end
$var wire 1 * producto_unsigned [2] $end
$var wire 1 + producto_unsigned [1] $end
$var wire 1 , producto_unsigned [0] $end
$scope module i1 $end
$var wire 1 - gnd $end
$var wire 1 . vcc $end
$var wire 1 / unknown $end
$var wire 1 0 devoe $end
$var wire 1 1 devclrn $end
$var wire 1 2 devpor $end
$var wire 1 3 ww_devoe $end
$var wire 1 4 ww_devclrn $end
$var wire 1 5 ww_devpor $end
$var wire 1 6 ww_a [1] $end
$var wire 1 7 ww_a [0] $end
$var wire 1 8 ww_b [1] $end
$var wire 1 9 ww_b [0] $end
$var wire 1 : ww_producto_unsigned [3] $end
$var wire 1 ; ww_producto_unsigned [2] $end
$var wire 1 < ww_producto_unsigned [1] $end
$var wire 1 = ww_producto_unsigned [0] $end
$var wire 1 > ww_producto_signed [3] $end
$var wire 1 ? ww_producto_signed [2] $end
$var wire 1 @ ww_producto_signed [1] $end
$var wire 1 A ww_producto_signed [0] $end
$var wire 1 B \producto_unsigned[0]~output_o\ $end
$var wire 1 C \producto_unsigned[1]~output_o\ $end
$var wire 1 D \producto_unsigned[2]~output_o\ $end
$var wire 1 E \producto_unsigned[3]~output_o\ $end
$var wire 1 F \producto_signed[0]~output_o\ $end
$var wire 1 G \producto_signed[1]~output_o\ $end
$var wire 1 H \producto_signed[2]~output_o\ $end
$var wire 1 I \producto_signed[3]~output_o\ $end
$var wire 1 J \b[0]~input_o\ $end
$var wire 1 K \a[0]~input_o\ $end
$var wire 1 L \Mult0|mult_core|result[0]~0_combout\ $end
$var wire 1 M \a[1]~input_o\ $end
$var wire 1 N \b[1]~input_o\ $end
$var wire 1 O \Mult0|mult_core|result[1]~1_combout\ $end
$var wire 1 P \Mult0|mult_core|result[2]~2_combout\ $end
$var wire 1 Q \Mult0|mult_core|result[3]~3_combout\ $end
$var wire 1 R \Mult1|mult_core|result[2]~0_combout\ $end
$var wire 1 S \Mult1|mult_core|result[3]~1_combout\ $end
$upscope $end
$upscope $end
$enddefinitions $end
#0
$dumpvars
0-
1.
x/
10
11
12
13
14
15
0B
0C
0D
0E
0F
0G
0H
0I
0J
0K
0L
0M
0N
0O
0P
0Q
0R
0S
0!
0"
0#
0$
06
07
08
09
0:
0;
0<
0=
0>
0?
0@
0A
0%
0&
0'
0(
0)
0*
0+
0,
$end
#100000
1"
17
1K
#200000
0"
1!
1$
07
16
19
1J
1M
0K
1O
1R
1S
1I
1H
1C
1G
1>
1?
1<
1@
1'
1&
1%
1+
#300000
1"
17
1K
1L
1B
1F
1=
1A
1,
1(
#400000
0"
0!
0$
1#
07
06
09
18
1N
0J
0M
0K
0L
0O
0R
0S
0I
0H
0C
0G
0B
0F
0>
0?
0<
0@
0=
0A
0(
0'
0&
0%
0,
0+
#500000
1"
17
1K
1O
1R
1S
1I
1H
1C
1G
1>
1?
1<
1@
1'
1&
1%
1+
#600000
0"
1!
1$
07
16
19
1J
1M
0K
1P
0R
0S
0I
0H
1D
0>
0?
1;
0&
0%
1*
#700000
1"
17
1K
1L
0O
0P
1Q
1E
0D
0C
0G
1B
1F
1:
0;
0<
0@
1=
1A
1,
0+
0*
1)
1(
0'
#800000
0"
0!
0$
0#
07
06
09
08
0N
0J
0M
0K
0L
0Q
0E
0B
0F
0:
0=
0A
0,
0)
0(
#900000
1"
17
1K
