ParteF/simulation/qsim/ParteF.msim.vcd
$comment
	File created using the following command:
		vcd file ParteF.msim.vcd -direction
$end
$date
	Mon Nov 03 00:07:44 2025
$end
$version
	ModelSim Version 10.1d
$end
$timescale
	1ps
$end
$scope module partef_vhd_vec_tst $end
$var wire 1 ! ack $end
$var wire 1 " Clk $end
$var wire 1 # Fin_Dato $end
$var wire 1 $ Fin_Dir $end
$var wire 1 % hab_dato $end
$var wire 1 & hab_dir $end
$var wire 1 ' Salida [3] $end
$var wire 1 ( Salida [2] $end
$var wire 1 ) Salida [1] $end
$var wire 1 * Salida [0] $end
$var wire 1 + SCL $end
$var wire 1 , SDA $end
$var wire 1 - Soy $end
$scope module i1 $end
$var wire 1 . gnd $end
$var wire 1 / vcc $end
$var wire 1 0 unknown $end
$var wire 1 1 devoe $end
$var wire 1 2 devclrn $end
$var wire 1 3 devpor $end
$var wire 1 4 ww_devoe $end
$var wire 1 5 ww_devclrn $end
$var wire 1 6 ww_devpor $end
$var wire 1 7 ww_Fin_Dir $end
$var wire 1 8 ww_Clk $end
$var wire 1 9 ww_SDA $end
$var wire 1 : ww_Soy $end
$var wire 1 ; ww_ack $end
$var wire 1 < ww_SCL $end
$var wire 1 = ww_hab_dato $end
$var wire 1 > ww_hab_dir $end
$var wire 1 ? ww_Fin_Dato $end
$var wire 1 @ ww_Salida [3] $end
$var wire 1 A ww_Salida [2] $end
$var wire 1 B ww_Salida [1] $end
$var wire 1 C ww_Salida [0] $end
$var wire 1 D \inst16~clkctrl_INCLK_bus\ [3] $end
$var wire 1 E \inst16~clkctrl_INCLK_bus\ [2] $end
$var wire 1 F \inst16~clkctrl_INCLK_bus\ [1] $end
$var wire 1 G \inst16~clkctrl_INCLK_bus\ [0] $end
$var wire 1 H \inst5~clkctrl_INCLK_bus\ [3] $end
$var wire 1 I \inst5~clkctrl_INCLK_bus\ [2] $end
$var wire 1 J \inst5~clkctrl_INCLK_bus\ [1] $end
$var wire 1 K \inst5~clkctrl_INCLK_bus\ [0] $end
$var wire 1 L \Clk~inputclkctrl_INCLK_bus\ [3] $end
$var wire 1 M \Clk~inputclkctrl_INCLK_bus\ [2] $end
$var wire 1 N \Clk~inputclkctrl_INCLK_bus\ [1] $end
$var wire 1 O \Clk~inputclkctrl_INCLK_bus\ [0] $end
$var wire 1 P \Fin_Dir~output_o\ $end
$var wire 1 Q \Soy~output_o\ $end
$var wire 1 R \ack~output_o\ $end
$var wire 1 S \hab_dato~output_o\ $end
$var wire 1 T \hab_dir~output_o\ $end
$var wire 1 U \Fin_Dato~output_o\ $end
$var wire 1 V \Salida[3]~output_o\ $end
$var wire 1 W \Salida[2]~output_o\ $end
$var wire 1 X \Salida[1]~output_o\ $end
$var wire 1 Y \Salida[0]~output_o\ $end
$var wire 1 Z \Clk~input_o\ $end
$var wire 1 [ \SDA~input_o\ $end
$var wire 1 \ \Clk~inputclkctrl_outclk\ $end
$var wire 1 ] \inst2|reg~6_combout\ $end
$var wire 1 ^ \inst2|reg~0_combout\ $end
$var wire 1 _ \inst2|reg[0]~feeder_combout\ $end
$var wire 1 ` \inst2|reg~1_combout\ $end
$var wire 1 a \inst2|reg[1]~feeder_combout\ $end
$var wire 1 b \inst2|reg~2_combout\ $end
$var wire 1 c \inst2|reg~3_combout\ $end
$var wire 1 d \inst2|reg~5_combout\ $end
$var wire 1 e \inst13|Equal0~2_combout\ $end
$var wire 1 f \inst13|Equal0~0_combout\ $end
$var wire 1 g \inst27|cnt[0]~2_combout\ $end
$var wire 1 h \SCL~input_o\ $end
$var wire 1 i \inst6~combout\ $end
$var wire 1 j \inst27|cnt[2]~0_combout\ $end
$var wire 1 k \inst|reg_fstate~2_combout\ $end
$var wire 1 l \inst|reg_fstate~3_combout\ $end
$var wire 1 m \inst|fstate.R_W~q\ $end
$var wire 1 n \inst|fstate.ACK~feeder_combout\ $end
$var wire 1 o \inst|fstate.ACK~q\ $end
$var wire 1 p \inst2|reg~4_combout\ $end
$var wire 1 q \inst13|Equal0~1_combout\ $end
$var wire 1 r \inst16~combout\ $end
$var wire 1 s \inst16~clkctrl_outclk\ $end
$var wire 1 t \inst3|cnt[2]~2_combout\ $end
$var wire 1 u \inst3|cnt~0_combout\ $end
$var wire 1 v \inst3|cnt~1_combout\ $end
$var wire 1 w \inst3|cnt[1]~3_combout\ $end
$var wire 1 x \inst3|Equal0~0_combout\ $end
$var wire 1 y \inst|Selector2~0_combout\ $end
$var wire 1 z \inst|fstate.Guardar_dato~q\ $end
$var wire 1 { \inst|Selector0~0_combout\ $end
$var wire 1 | \inst|Selector0~1_combout\ $end
$var wire 1 } \inst|fstate.Oscioso~q\ $end
$var wire 1 ~ \inst|Selector1~0_combout\ $end
$var wire 1 !! \inst|fstate.Guardar_Dir~feeder_combout\ $end
$var wire 1 "! \inst|fstate.Guardar_Dir~q\ $end
$var wire 1 #! \inst5~combout\ $end
$var wire 1 $! \inst5~clkctrl_outclk\ $end
$var wire 1 %! \inst27|cnt[1]~1_combout\ $end
$var wire 1 &! \inst27|Equal0~0_combout\ $end
$var wire 1 '! \inst27|cnt\ [2] $end
$var wire 1 (! \inst27|cnt\ [1] $end
$var wire 1 )! \inst27|cnt\ [0] $end
$var wire 1 *! \inst2|reg\ [6] $end
$var wire 1 +! \inst2|reg\ [5] $end
$var wire 1 ,! \inst2|reg\ [4] $end
$var wire 1 -! \inst2|reg\ [3] $end
$var wire 1 .! \inst2|reg\ [2] $end
$var wire 1 /! \inst2|reg\ [1] $end
$var wire 1 0! \inst2|reg\ [0] $end
$var wire 1 1! \inst3|cnt\ [3] $end
$var wire 1 2! \inst3|cnt\ [2] $end
$var wire 1 3! \inst3|cnt\ [1] $end
$var wire 1 4! \inst3|cnt\ [0] $end
$var wire 1 5! \ALT_INV_inst6~combout\ $end
$var wire 1 6! \inst|ALT_INV_fstate.Guardar_Dir~q\ $end
$upscope $end
$upscope $end
$enddefinitions $end
#0
$dumpvars
0!
0"
0#
0$
0%
0&
0+
1,
0-
0.
1/
x0
11
12
13
14
15
16
07
08
19
0:
0;
0<
0=
0>
0?
0P
0Q
0R
0S
0T
0U
0V
0W
0X
0Y
0Z
1[
0\
0]
1^
1_
0`
0a
0b
0c
0d
0e
0f
1g
0h
0i
0j
0k
0l
0m
0n
0o
0p
0q
1r
1s
0t
0u
1v
0w
0x
0y
0z
1{
0|
0}
0~
0!!
0"!
1#!
1$!
0%!
0&!
15!
16!
0@
0A
0B
0C
0'!
0(!
0)!
0*!
0+!
0,!
0-!
0.!
0/!
00!
01!
02!
03!
04!
1L
1M
1N
0O
1D
1E
1F
1G
1H
1I
1J
1K
0'
0(
0)
0*
$end
#2500
1"
18
1Z
1O
1\
#5000
0"
08
0Z
0O
0\
#7500
1"
18
1Z
1O
1\
#10000
0"
0,
1+
08
09
1<
1h
0[
0Z
0O
0^
0{
1~
1!!
1|
0_
0\
#12500
1"
18
1Z
1O
1"!
06!
0#!
1\
0K
1T
1}
1>
0$!
1&
#15000
0"
08
0Z
0O
0\
#17500
1"
18
1Z
1O
1\
#20000
0"
0+
08
0<
0h
0Z
0O
1#!
1K
0\
1$!
1)!
0g
1%!
1Y
1C
1*
#22500
1"
18
1Z
1O
1\
#25000
0"
08
0Z
0O
0\
#27500
1"
18
1Z
1O
1\
#30000
0"
1+
1,
08
1<
19
1[
1h
0Z
0O
0#!
1^
0K
1_
0\
0$!
#32500
1"
18
1Z
1O
1\
#35000
0"
08
0Z
0O
0\
#37500
1"
18
1Z
1O
1\
#40000
0"
0+
08
0<
0h
0Z
0O
1#!
1K
0\
1$!
10!
0)!
1(!
1g
1`
1a
1X
0Y
1B
0C
0*
1)
#42500
1"
18
1Z
1O
1\
#45000
0"
08
0Z
0O
0\
#47500
1"
18
1Z
1O
1\
#50000
0"
1+
0,
08
1<
09
0[
1h
0Z
0O
0#!
0^
0K
0_
0\
0$!
#52500
1"
18
1Z
1O
1\
#55000
0"
08
0Z
0O
0\
#57500
1"
18
1Z
1O
1\
#60000
0"
0+
08
0<
0h
0Z
0O
1#!
1K
0\
1$!
00!
1/!
1)!
0g
1j
0%!
1b
0`
0a
1Y
1C
1*
#62500
1"
18
1Z
1O
1\
#65000
0"
08
0Z
0O
0\
#67500
1"
18
1Z
1O
1\
#70000
0"
1+
08
1<
1h
0Z
0O
0#!
0K
0\
0$!
#72500
1"
18
1Z
1O
1\
#75000
0"
08
0Z
0O
0\
#77500
1"
18
1Z
1O
1\
#80000
0"
0+
08
0<
0h
0Z
0O
1#!
1K
0\
1$!
0/!
1.!
0)!
1'!
0(!
1g
1c
0b
0X
1W
0Y
0B
1A
0C
0*
0)
1(
#82500
1"
18
1Z
1O
1\
#85000
0"
08
0Z
0O
0\
#87500
1"
18
1Z
1O
1\
#90000
0"
1+
08
1<
1h
0Z
0O
0#!
0K
0\
0$!
#92500
1"
18
1Z
1O
1\
#95000
0"
08
0Z
0O
0\
#97500
1"
18
1Z
1O
1\
#100000
0"
0+
08
0<
0h
0Z
0O
1#!
1K
0\
1$!
0.!
1-!
1)!
0g
1%!
1d
0c
1Y
1C
1*
#102500
1"
18
1Z
1O
1\
#105000
0"
08
0Z
0O
0\
#107500
1"
18
1Z
1O
1\
#110000
0"
1+
08
1<
1h
0Z
0O
0#!
0K
0\
0$!
#112500
1"
18
1Z
1O
1\
#115000
0"
08
0Z
0O
0\
#117500
1"
18
1Z
1O
1\
#120000
0"
0+
1,
08
0<
19
1[
0h
0Z
0O
1#!
1^
1K
1_
0\
1$!
10!
0-!
1,!
0)!
1(!
1g
1p
0d
1`
1a
1X
0Y
1B
0C
0*
1)
#122500
1"
18
1Z
1O
1\
#125000
0"
08
0Z
0O
0\
#127500
1"
18
1Z
1O
1\
#130000
0"
1+
08
1<
1h
0Z
0O
0#!
0K
0\
0$!
#132500
1"
18
1Z
1O
1\
#135000
0"
08
0Z
0O
0\
#137500
1"
18
1Z
1O
1\
#140000
0"
0+
08
0<
0h
0Z
0O
1#!
1K
0\
1$!
1/!
0,!
1)!
1+!
1]
0g
0j
1k
0%!
1&!
1e
0p
1b
1f
1q
0~
1l
0|
1Y
0!!
1|
1C
1P
1*
17
1Q
1$
1:
1-
#142500
1"
18
1Z
1O
0"!
16!
0k
1\
0l
0T
1m
0>
1n
0&
#145000
0"
08
0Z
0O
0\
#147500
1"
18
1Z
1O
1\
0m
1o
0]
0^
0`
0b
1y
0n
0a
0_
1R
1;
1!
#150000
0"
1+
08
1<
1h
0Z
0O
1i
05!
0\
0)!
0'!
0(!
1g
0&!
0X
0W
0Y
0B
0A
0C
0P
0*
0)
0(
07
0$
#152500
1"
18
1Z
1O
1z
0r
1\
0G
1S
0o
1=
0s
1]
1^
1`
1b
1%
1a
1_
0R
0;
0!
#155000
0"
08
0Z
0O
0\
#157500
1"
18
1Z
1O
1\
#160000
0"
0+
0,
08
0<
09
0[
0h
0Z
0O
0i
1r
0^
15!
1G
0_
0\
1s
14!
0v
1w
#162500
1"
18
1Z
1O
1\
#165000
0"
08
0Z
0O
0\
#167500
1"
18
1Z
1O
1\
#170000
0"
1+
08
1<
1h
0Z
0O
1i
0r
05!
0G
0\
0s
#172500
1"
18
1Z
1O
1\
#175000
0"
08
0Z
0O
0\
#177500
1"
18
1Z
1O
1\
#180000
0"
0+
08
0<
0h
0Z
0O
0i
1r
15!
1G
0\
1s
04!
13!
1v
#182500
1"
18
1Z
1O
1\
#185000
0"
08
0Z
0O
0\
#187500
1"
18
1Z
1O
1\
#190000
0"
1+
08
1<
1h
0Z
0O
1i
0r
05!
0G
0\
0s
#192500
1"
18
1Z
1O
1\
#195000
0"
08
0Z
0O
0\
#197500
1"
18
1Z
1O
1\
#200000
0"
0+
08
0<
0h
0Z
0O
0i
1r
15!
1G
0\
1s
14!
1t
0v
0w
#202500
1"
18
1Z
1O
1\
#205000
0"
08
0Z
0O
0\
#207500
1"
18
1Z
1O
1\
#210000
0"
1+
08
1<
1h
0Z
0O
1i
0r
05!
0G
0\
0s
#212500
1"
18
1Z
1O
1\
#215000
0"
08
0Z
0O
0\
#217500
1"
18
1Z
1O
1\
#220000
0"
0+
08
0<
0h
0Z
0O
0i
1r
15!
1G
0\
1s
12!
04!
03!
1v
#222500
1"
18
1Z
1O
1\
#225000
0"
08
0Z
0O
0\
#227500
1"
18
1Z
1O
1\
#230000
0"
1+
08
1<
1h
0Z
0O
1i
0r
05!
0G
0\
0s
#232500
1"
18
1Z
1O
1\
#235000
0"
08
0Z
0O
0\
#237500
1"
18
1Z
1O
1\
#240000
0"
0+
08
0<
0h
0Z
0O
0i
1r
15!
1G
0\
1s
14!
0v
1w
#242500
1"
18
1Z
1O
1\
#245000
0"
08
0Z
0O
0\
#247500
1"
18
1Z
1O
1\
#250000
0"
1+
08
1<
1h
0Z
0O
1i
0r
05!
0G
0\
0s
#252500
1"
18
1Z
1O
1\
#255000
0"
08
0Z
0O
0\
#257500
1"
18
1Z
1O
1\
#260000
0"
0+
08
0<
0h
0Z
0O
0i
1r
15!
1G
0\
1s
04!
13!
1v
#262500
1"
18
1Z
1O
1\
#265000
0"
08
0Z
0O
0\
#267500
1"
18
1Z
1O
1\
#270000
0"
1+
08
1<
1h
0Z
0O
1i
0r
05!
0G
0\
0s
#272500
1"
18
1Z
1O
1\
#275000
0"
08
0Z
0O
0\
#277500
1"
18
1Z
1O
1\
#280000
0"
0+
08
0<
0h
0Z
0O
0i
1r
15!
1G
0\
1s
14!
0t
1u
0v
0w
#282500
1"
18
1Z
1O
1\
#285000
0"
08
0Z
0O
0\
#287500
1"
18
1Z
1O
1\
#290000
0"
1+
1,
08
1<
19
1[
1h
0Z
0O
1i
0r
1^
05!
0G
1_
0\
0s
#292500
1"
18
1Z
1O
1\
#295000
0"
08
0Z
0O
0\
#297500
1"
18
1Z
1O
1\
#300000
0"
0+
08
0<
0h
0Z
0O
0i
1r
15!
1G
0\
1s
02!
11!
04!
03!
0u
1x
0y
1{
0|
1U
1?
1#
#302500
1"
18
1Z
1O
0z
0{
1\
1|
0S
0}
0=
1{
0%
0|
#305000
0"
08
0Z
0O
0\
#307500
1"
18
1Z
1O
1\
#310000
0"
1+
08
1<
1h
0Z
0O
1i
05!
0\
#312500
1"
18
1Z
1O
1\
#315000
0"
08
0Z
0O
0\
#317500
1"
18
1Z
1O
1\
#320000
0"
0+
08
0<
0h
0Z
0O
0i
15!
0\
#322500
1"
18
1Z
1O
1\
#325000
0"
08
0Z
0O
0\
#327500
1"
18
1Z
1O
1\
#330000
0"
1+
08
1<
1h
0Z
0O
1i
05!
0\
#332500
1"
18
1Z
1O
1\
#335000
0"
08
0Z
0O
0\
#337500
1"
18
1Z
1O
1\
#340000
0"
0+
08
0<
0h
0Z
0O
0i
15!
0\
#342500
1"
18
1Z
1O
1\
#345000
0"
08
0Z
0O
0\
#347500
1"
18
1Z
1O
1\
#350000
0"
1+
08
1<
1h
0Z
0O
1i
05!
0\
#352500
1"
18
1Z
1O
1\
#355000
0"
08
0Z
0O
0\
#357500
1"
18
1Z
1O
1\
#360000
0"
0+
08
0<
0h
0Z
0O
0i
15!
0\
#362500
1"
18
1Z
1O
1\
#365000
0"
08
0Z
0O
0\
#367500
1"
18
1Z
1O
1\
#370000
0"
1+
08
1<
1h
0Z
0O
1i
05!
0\
#372500
1"
18
1Z
1O
1\
#375000
0"
08
0Z
0O
0\
#377500
1"
18
1Z
1O
1\
#380000
0"
0+
08
0<
0h
0Z
0O
0i
15!
0\
#382500
1"
18
1Z
1O
1\
#385000
0"
08
0Z
0O
0\
#387500
1"
18
1Z
1O
1\
#390000
0"
1+
08
1<
1h
0Z
0O
1i
05!
0\
#392500
1"
18
1Z
1O
1\
#395000
0"
08
0Z
0O
0\
#397500
1"
18
1Z
1O
1\
#400000
0"
0+
08
0<
0h
0Z
0O
0i
15!
0\
#402500
1"
18
1Z
1O
1\
#405000
0"
08
0Z
0O
0\
#407500
1"
18
1Z
1O
1\
#410000
0"
1+
08
1<
1h
0Z
0O
1i
05!
0\
#412500
1"
18
1Z
1O
1\
#415000
0"
08
0Z
0O
0\
#417500
1"
18
1Z
1O
1\
#420000
0"
0+
08
0<
0h
0Z
0O
0i
15!
0\
#422500
1"
18
1Z
1O
1\
#425000
0"
08
0Z
0O
0\
#427500
1"
18
1Z
1O
1\
#430000
0"
1+
08
1<
1h
0Z
0O
1i
05!
0\
#432500
1"
18
1Z
1O
1\
#435000
0"
08
0Z
0O
0\
#437500
1"
18
1Z
1O
1\
#440000
0"
0+
08
0<
0h
0Z
0O
0i
15!
0\
#442500
1"
18
1Z
1O
1\
#445000
0"
08
0Z
0O
0\
#447500
1"
18
1Z
1O
1\
#450000
0"
1+
08
1<
1h
0Z
0O
1i
05!
0\
#452500
1"
18
1Z
1O
1\
#455000
0"
08
0Z
0O
0\
#457500
1"
18
1Z
1O
1\
#460000
0"
0+
08
0<
0h
0Z
0O
0i
15!
0\
#462500
1"
18
1Z
1O
1\
#465000
0"
08
0Z
0O
0\
#467500
1"
18
1Z
1O
1\
#470000
0"
1+
08
1<
1h
0Z
0O
1i
05!
0\
#472500
1"
18
1Z
1O
1\
#475000
0"
08
0Z
0O
0\
#477500
1"
18
1Z
1O
1\
#480000
0"
0+
0,
08
0<
09
0[
0h
0Z
0O
0i
0^
0{
1~
15!
1!!
1|
0_
0\
#482500
1"
18
1Z
1O
1"!
06!
1\
01!
1T
1v
0x
1}
1>
1&
0U
0?
0#
#485000
0"
08
0Z
0O
0\
#487500
1"
18
1Z
1O
1\
#490000
0"
1+
08
1<
1h
0Z
0O
1i
0#!
05!
0K
0\
0$!
#492500
1"
18
1Z
1O
1\
#495000
0"
08
0Z
0O
0\
#497500
1"
18
1Z
1O
1\
#500000
0"
0+
08
0<
0h
0Z
0O
0i
1#!
15!
1K
0\
1$!
1*!
00!
1.!
1)!
0+!
0]
0g
1%!
1c
0`
0f
0e
0q
0a
1Y
1C
0Q
1*
0:
0-
#502500
1"
18
1Z
1O
1\
#505000
0"
08
0Z
0O
0\
#507500
1"
18
1Z
1O
1\
#510000
0"
1+
1,
08
1<
19
1[
1h
0Z
0O
0#!
1^
0K
1_
0\
0$!
#512500
1"
18
1Z
1O
1\
#515000
0"
08
0Z
0O
0\
#517500
1"
18
1Z
1O
1\
#520000
0"
0+
08
0<
0h
0Z
0O
1#!
1K
0\
1$!
0*!
10!
0/!
1-!
0)!
1(!
1g
1d
0b
1`
1a
1X
0Y
1B
0C
0*
1)
#522500
1"
18
1Z
1O
1\
#525000
0"
08
0Z
0O
0\
#527500
1"
18
1Z
1O
1\
#530000
0"
1+
0,
08
1<
09
0[
1h
0Z
0O
0#!
0^
0K
0_
0\
0$!
#532500
1"
18
1Z
1O
1\
#535000
0"
08
0Z
0O
0\
#537500
1"
18
1Z
1O
1\
#540000
0"
0+
08
0<
0h
0Z
0O
1#!
1K
0\
1$!
00!
1/!
0.!
1,!
1)!
0g
1j
0%!
1p
0c
1b
0`
0a
1Y
1C
1*
#542500
1"
18
1Z
1O
1\
#545000
0"
08
0Z
0O
0\
#547500
1"
18
1Z
1O
1\
#550000
0"
1+
08
1<
1h
0Z
0O
0#!
0K
0\
0$!
#552500
1"
18
1Z
1O
1\
#555000
0"
08
0Z
0O
0\
#557500
1"
18
1Z
1O
1\
#560000
0"
0+
08
0<
0h
0Z
0O
1#!
1K
0\
1$!
0/!
1.!
0-!
0)!
1'!
1+!
0(!
1]
1g
0d
1c
0b
0X
1W
0Y
0B
1A
0C
0*
0)
1(
#562500
1"
18
1Z
1O
1\
#565000
0"
08
0Z
0O
0\
#567500
1"
18
1Z
1O
1\
#570000
0"
1+
08
1<
1h
0Z
0O
0#!
0K
0\
0$!
#572500
1"
18
1Z
1O
1\
#575000
0"
08
0Z
0O
0\
#577500
1"
18
1Z
1O
1\
#580000
0"
0+
08
0<
0h
0Z
0O
1#!
1K
0\
1$!
1*!
0.!
1-!
0,!
1)!
0g
1%!
0p
1d
0c
1Y
1C
1*
#582500
1"
18
1Z
1O
1\
#585000
0"
08
0Z
0O
0\
#587500
1"
18
1Z
1O
1\
#590000
0"
1+
1,
08
1<
19
1[
1h
0Z
0O
0#!
1^
0K
1_
0\
0$!
#592500
1"
18
1Z
1O
1\
#595000
0"
08
0Z
0O
0\
#597500
1"
18
1Z
1O
1\
#600000
0"
0+
08
0<
0h
0Z
0O
1#!
1K
0\
1$!
10!
0-!
1,!
0)!
0+!
1(!
0]
1g
1p
0d
1`
1a
1X
0Y
1B
0C
0*
1)
#602500
1"
18
1Z
1O
1\
#605000
0"
08
0Z
0O
0\
#607500
1"
18
1Z
1O
1\
#610000
0"
1+
08
1<
1h
0Z
0O
0#!
0K
0\
0$!
#612500
1"
18
1Z
1O
1\
#615000
0"
08
0Z
0O
0\
#617500
1"
18
1Z
1O
1\
#620000
0"
0+
08
0<
0h
0Z
0O
1#!
1K
0\
1$!
0*!
1/!
0,!
1)!
1+!
1]
0g
0j
1k
0%!
1&!
0p
1b
1f
1e
1q
0~
1l
0|
1Y
0!!
1|
1C
1P
1*
17
1Q
1$
1:
1-
#622500
1"
18
1Z
1O
0"!
16!
0k
1\
0l
0T
1m
0>
1n
0&
#625000
0"
08
0Z
0O
0\
#627500
1"
18
1Z
1O
1\
0m
1o
0]
0^
0`
0b
1y
0n
0a
0_
1R
1;
1!
#630000
0"
1+
0,
08
1<
09
0[
1h
0Z
0O
1i
05!
0\
0)!
0'!
0(!
1g
0&!
0X
0W
0Y
0B
0A
0C
0P
0*
0)
0(
07
0$
#632500
1"
18
1Z
1O
1z
0r
1\
0G
1S
0o
1=
0s
1]
1`
1b
1%
1a
0R
0;
0!
#635000
0"
08
0Z
0O
0\
#637500
1"
18
1Z
1O
1\
#640000
0"
0+
08
0<
0h
0Z
0O
0i
1r
15!
1G
0\
1s
14!
0v
1w
#642500
1"
18
1Z
1O
1\
#645000
0"
08
0Z
0O
0\
#647500
1"
18
1Z
1O
1\
#650000
0"
1+
08
1<
1h
0Z
0O
1i
0r
05!
0G
0\
0s
#652500
1"
18
1Z
1O
1\
#655000
0"
08
0Z
0O
0\
#657500
1"
18
1Z
1O
1\
#660000
0"
0+
08
0<
0h
0Z
0O
0i
1r
15!
1G
0\
1s
04!
13!
1v
#662500
1"
18
1Z
1O
1\
#665000
0"
08
0Z
0O
0\
#667500
1"
18
1Z
1O
1\
#670000
0"
1+
08
1<
1h
0Z
0O
1i
0r
05!
0G
0\
0s
#672500
1"
18
1Z
1O
1\
#675000
0"
08
0Z
0O
0\
#677500
1"
18
1Z
1O
1\
#680000
0"
0+
08
0<
0h
0Z
0O
0i
1r
15!
1G
0\
1s
14!
1t
0v
0w
#682500
1"
18
1Z
1O
1\
#685000
0"
08
0Z
0O
0\
#687500
1"
18
1Z
1O
1\
#690000
0"
1+
08
1<
1h
0Z
0O
1i
0r
05!
0G
0\
0s
#692500
1"
18
1Z
1O
1\
#695000
0"
08
0Z
0O
0\
#697500
1"
18
1Z
1O
1\
#700000
0"
0+
08
0<
0h
0Z
0O
0i
1r
15!
1G
0\
1s
12!
04!
03!
1v
#702500
1"
18
1Z
1O
1\
#705000
0"
08
0Z
0O
0\
#707500
1"
18
1Z
1O
1\
#710000
0"
1+
08
1<
1h
0Z
0O
1i
0r
05!
0G
0\
0s
#712500
1"
18
1Z
1O
1\
#715000
0"
08
0Z
0O
0\
#717500
1"
18
1Z
1O
1\
#720000
0"
0+
08
0<
0h
0Z
0O
0i
1r
15!
1G
0\
1s
14!
0v
1w
#722500
1"
18
1Z
1O
1\
#725000
0"
08
0Z
0O
0\
#727500
1"
18
1Z
1O
1\
#730000
0"
1+
08
1<
1h
0Z
0O
1i
0r
05!
0G
0\
0s
#732500
1"
18
1Z
1O
1\
#735000
0"
08
0Z
0O
0\
#737500
1"
18
1Z
1O
1\
#740000
0"
0+
08
0<
0h
0Z
0O
0i
1r
15!
1G
0\
1s
04!
13!
1v
#742500
1"
18
1Z
1O
1\
#745000
0"
08
0Z
0O
0\
#747500
1"
18
1Z
1O
1\
#750000
0"
1+
08
1<
1h
0Z
0O
1i
0r
05!
0G
0\
0s
#752500
1"
18
1Z
1O
1\
#755000
0"
08
0Z
0O
0\
#757500
1"
18
1Z
1O
1\
#760000
0"
0+
08
0<
0h
0Z
0O
0i
1r
15!
1G
0\
1s
14!
0t
1u
0v
0w
#762500
1"
18
1Z
1O
1\
#765000
0"
08
0Z
0O
0\
#767500
1"
18
1Z
1O
1\
#770000
0"
1+
08
1<
1h
0Z
0O
1i
0r
05!
0G
0\
0s
#772500
1"
18
1Z
1O
1\
#775000
0"
08
0Z
0O
0\
#777500
1"
18
1Z
1O
1\
#780000
0"
0+
08
0<
0h
0Z
0O
0i
1r
15!
1G
0\
1s
02!
11!
04!
03!
0u
1x
0y
1{
0|
1U
1?
1#
#782500
1"
18
1Z
1O
0z
0{
1\
1|
0S
0}
0=
1~
0%
1!!
#785000
0"
08
0Z
0O
0\
#787500
1"
18
1Z
1O
1"!
06!
1\
01!
1T
1v
0x
1}
1>
1&
0U
0?
0#
#790000
0"
1+
08
1<
1h
0Z
0O
1i
0#!
05!
0K
0\
0$!
#792500
1"
18
1Z
1O
1\
#795000
0"
08
0Z
0O
0\
#797500
1"
18
1Z
1O
1\
#800000
0"
0+
08
0<
0h
0Z
0O
0i
1#!
15!
1K
0\
1$!
1*!
00!
1.!
1)!
0+!
0]
0g
1%!
1c
0`
0f
0e
0q
0a
1Y
1C
0Q
1*
0:
0-
#802500
1"
18
1Z
1O
1\
#805000
0"
08
0Z
0O
0\
#807500
1"
18
1Z
1O
1\
#810000
0"
1+
08
1<
1h
0Z
0O
0#!
0K
0\
0$!
#812500
1"
18
1Z
1O
1\
#815000
0"
08
0Z
0O
0\
#817500
1"
18
1Z
1O
1\
#820000
0"
0+
08
0<
0h
0Z
0O
1#!
1K
0\
1$!
0*!
0/!
1-!
0)!
1(!
1g
1d
0b
1X
0Y
1B
0C
0*
1)
#822500
1"
18
1Z
1O
1\
#825000
0"
08
0Z
0O
0\
#827500
1"
18
1Z
1O
1\
#830000
0"
1+
08
1<
1h
0Z
0O
0#!
0K
0\
0$!
#832500
1"
18
1Z
1O
1\
#835000
0"
08
0Z
0O
0\
#837500
1"
18
1Z
1O
1\
#840000
0"
0+
08
0<
0h
0Z
0O
1#!
1K
0\
1$!
0.!
1,!
1)!
0g
1j
0%!
1p
0c
1Y
1C
1*
#842500
1"
18
1Z
1O
1\
#845000
0"
08
0Z
0O
0\
#847500
1"
18
1Z
1O
1\
#850000
0"
1+
08
1<
1h
0Z
0O
0#!
0K
0\
0$!
#852500
1"
18
1Z
1O
1\
#855000
0"
08
0Z
0O
0\
#857500
1"
18
1Z
1O
1\
#860000
0"
0+
08
0<
0h
0Z
0O
1#!
1K
0\
1$!
0-!
0)!
1'!
1+!
0(!
1]
1g
0d
0X
1W
0Y
0B
1A
0C
0*
0)
1(
#862500
1"
18
1Z
1O
1\
#865000
0"
08
0Z
0O
0\
#867500
1"
18
1Z
1O
1\
#870000
0"
1+
08
1<
1h
0Z
0O
0#!
0K
0\
0$!
#872500
1"
18
1Z
1O
1\
#875000
0"
08
0Z
0O
0\
#877500
1"
18
1Z
1O
1\
#880000
0"
0+
08
0<
0h
0Z
0O
1#!
1K
0\
1$!
1*!
0,!
1)!
0g
1%!
0p
1Y
1C
1*
#882500
1"
18
1Z
1O
1\
#885000
0"
08
0Z
0O
0\
#887500
1"
18
1Z
1O
1\
#890000
0"
1+
08
1<
1h
0Z
0O
0#!
0K
0\
0$!
#892500
1"
18
1Z
1O
1\
#895000
0"
08
0Z
0O
0\
#897500
1"
18
1Z
1O
1\
#900000
0"
0+
08
0<
0h
0Z
0O
1#!
1K
0\
1$!
0)!
0+!
1(!
0]
1g
1X
0Y
1B
0C
0*
1)
#902500
1"
18
1Z
1O
1\
#905000
0"
08
0Z
0O
0\
#907500
1"
18
1Z
1O
1\
#910000
0"
1+
08
1<
1h
0Z
0O
0#!
0K
0\
0$!
#912500
1"
18
1Z
1O
1\
#915000
0"
08
0Z
0O
0\
#917500
1"
18
1Z
1O
1\
#920000
0"
0+
08
0<
0h
0Z
0O
1#!
1K
0\
1$!
0*!
1)!
0g
0j
1k
0%!
1&!
0~
0|
1Y
0!!
1C
1P
1*
17
1$
#922500
1"
18
1Z
1O
0"!
16!
0k
1\
1|
0T
0}
0>
1~
0&
1!!
#925000
0"
08
0Z
0O
0\
#927500
1"
18
1Z
1O
1"!
06!
1k
1\
0|
1T
1}
1>
0~
1&
0!!
#930000
0"
1+
08
1<
1h
0Z
0O
0#!
0K
0\
0$!
#932500
1"
18
1Z
1O
0"!
16!
0k
1#!
1\
1K
1|
0T
0}
0>
1$!
1~
0&
1!!
0)!
0'!
0(!
1g
0&!
0X
0W
0Y
0B
0A
0C
0P
0*
0)
0(
07
0$
#935000
0"
08
0Z
0O
0\
#937500
1"
18
1Z
1O
1"!
06!
0#!
1\
0K
1T
1}
1>
0$!
1&
#940000
0"
0+
08
0<
0h
0Z
0O
1#!
1K
0\
1$!
1)!
0g
1%!
1Y
1C
1*
#942500
1"
18
1Z
1O
1\
#945000
0"
08
0Z
0O
0\
#947500
1"
18
1Z
1O
1\
#950000
0"
1+
08
1<
1h
0Z
0O
0#!
0K
0\
0$!
#952500
1"
18
1Z
1O
1\
#955000
0"
08
0Z
0O
0\
#957500
1"
18
1Z
1O
1\
#960000
0"
0+
08
0<
0h
0Z
0O
1#!
1K
0\
1$!
0)!
1(!
1g
1X
0Y
1B
0C
0*
1)
#962500
1"
18
1Z
1O
1\
#965000
0"
08
0Z
0O
0\
#967500
1"
18
1Z
1O
1\
#970000
0"
1+
08
1<
1h
0Z
0O
0#!
0K
0\
0$!
#972500
1"
18
1Z
1O
1\
