ParteF/simulation/qsim/ParteF.msim.vcd
$comment
	File created using the following command:
		vcd file ParteF.msim.vcd -direction
$end
$date
	Fri Oct 31 11:43:07 2025
$end
$version
	ModelSim Version 10.1d
$end
$timescale
	1ps
$end
$scope module compdir_vhd_vec_tst $end
$var wire 1 ! Fin_dir $end
$var wire 1 " Hab_dir $end
$var wire 1 # SCL $end
$var wire 1 $ SDA $end
$var wire 1 % SOY $end
$scope module i1 $end
$var wire 1 & gnd $end
$var wire 1 ' vcc $end
$var wire 1 ( unknown $end
$var wire 1 ) devoe $end
$var wire 1 * devclrn $end
$var wire 1 + devpor $end
$var wire 1 , ww_devoe $end
$var wire 1 - ww_devclrn $end
$var wire 1 . ww_devpor $end
$var wire 1 / ww_Fin_dir $end
$var wire 1 0 ww_Hab_dir $end
$var wire 1 1 ww_SCL $end
$var wire 1 2 ww_SOY $end
$var wire 1 3 ww_SDA $end
$var wire 1 4 \inst1~clkctrl_INCLK_bus\ [3] $end
$var wire 1 5 \inst1~clkctrl_INCLK_bus\ [2] $end
$var wire 1 6 \inst1~clkctrl_INCLK_bus\ [1] $end
$var wire 1 7 \inst1~clkctrl_INCLK_bus\ [0] $end
$var wire 1 8 \Fin_dir~output_o\ $end
$var wire 1 9 \SOY~output_o\ $end
$var wire 1 : \SCL~input_o\ $end
$var wire 1 ; \Hab_dir~input_o\ $end
$var wire 1 < \inst1~combout\ $end
$var wire 1 = \inst1~clkctrl_outclk\ $end
$var wire 1 > \inst|cnt[0]~2_combout\ $end
$var wire 1 ? \inst|cnt[1]~1_combout\ $end
$var wire 1 @ \inst|cnt[2]~0_combout\ $end
$var wire 1 A \inst|Equal0~0_combout\ $end
$var wire 1 B \SDA~input_o\ $end
$var wire 1 C \inst2|reg[0]~feeder_combout\ $end
$var wire 1 D \inst2|reg[1]~feeder_combout\ $end
$var wire 1 E \inst2|reg[2]~feeder_combout\ $end
$var wire 1 F \inst7|Equal0~0_combout\ $end
$var wire 1 G \inst2|reg[4]~feeder_combout\ $end
$var wire 1 H \inst2|reg[5]~feeder_combout\ $end
$var wire 1 I \inst7|Equal0~1_combout\ $end
$var wire 1 J \inst|cnt\ [2] $end
$var wire 1 K \inst|cnt\ [1] $end
$var wire 1 L \inst|cnt\ [0] $end
$var wire 1 M \inst2|reg\ [6] $end
$var wire 1 N \inst2|reg\ [5] $end
$var wire 1 O \inst2|reg\ [4] $end
$var wire 1 P \inst2|reg\ [3] $end
$var wire 1 Q \inst2|reg\ [2] $end
$var wire 1 R \inst2|reg\ [1] $end
$var wire 1 S \inst2|reg\ [0] $end
$upscope $end
$upscope $end
$enddefinitions $end
#0
$dumpvars
0!
0"
0#
1$
0%
0&
1'
x(
1)
1*
1+
1,
1-
1.
0/
00
01
02
13
08
09
0:
0;
0<
0=
1>
0?
0@
0A
1B
1C
0D
0E
0F
0G
0H
0I
0J
0K
0L
0M
0N
0O
0P
0Q
0R
0S
14
15
16
07
$end
#20000
0$
03
0B
0C
#25000
1#
11
1:
#40000
1$
13
1B
1C
#50000
0#
1"
01
10
1;
0:
#75000
1#
11
1:
1<
17
1=
1L
1S
1D
1F
0>
1?
#100000
0#
0$
01
03
0B
0:
0<
0C
07
0=
#125000
1#
11
1:
1<
17
1=
0L
1K
0S
1R
1E
0D
0F
1>
#150000
0#
01
0:
0<
07
0=
#160000
1$
13
1B
1C
#175000
1#
11
1:
1<
17
1=
1L
1S
0R
1Q
0E
1D
0>
0?
1@
#200000
0#
0$
01
03
0B
0:
0<
0C
07
0=
#225000
1#
11
1:
1<
17
1=
0L
0K
1J
0S
1R
0Q
1P
1G
1E
0D
1>
#250000
0#
01
0:
0<
07
0=
#275000
1#
11
1:
1<
17
1=
1L
0R
1Q
0P
1O
1H
0G
0E
0>
1?
#300000
0#
01
0:
0<
07
0=
#325000
1#
11
1:
1<
17
1=
0L
1K
0Q
1P
0O
1N
0H
1G
1>
#350000
0#
01
0:
0<
07
0=
#360000
1$
13
1B
1C
#375000
1#
11
1:
1<
17
1=
1L
1S
0P
1O
0N
1M
1H
0G
1D
1F
0>
0?
0@
1A
1I
18
1/
19
1!
12
1%
#400000
0#
0$
01
03
0B
0:
0<
0C
07
0=
#425000
1#
11
1:
1<
17
1=
0L
0K
0J
0S
1R
0O
1N
0M
0H
0I
1E
0D
0F
1>
0A
08
09
0/
02
0!
0%
#450000
0#
01
0:
0<
07
0=
#475000
1#
11
1:
1<
17
1=
1L
0R
1Q
0N
1M
0E
0>
1?
#500000
0#
01
0:
0<
07
0=
#510000
0"
00
0;
#525000
1#
11
1:
#550000
0#
01
0:
#575000
1#
11
1:
#600000
0#
01
0:
#625000
1#
11
1:
#650000
0#
01
0:
#675000
1#
11
1:
#700000
0#
01
0:
#725000
1#
11
1:
#750000
0#
01
0:
#775000
1#
11
1:
#800000
0#
01
0:
#825000
1#
11
1:
#850000
0#
01
0:
#875000
1#
11
1:
#900000
0#
01
0:
#925000
1#
11
1:
#950000
0#
01
0:
#975000
1#
11
1:
