Sumador_Completo/simulation/qsim/Sumador_Completo.msim.vcd
$comment
	File created using the following command:
		vcd file Sumador_Completo.msim.vcd -direction
$end
$date
	Mon Oct 20 16:48:44 2025
$end
$version
	ModelSim Version 10.1d
$end
$timescale
	1ps
$end
$scope module sumador_completo_vhd_vec_tst $end
$var wire 1 ! A $end
$var wire 1 " B $end
$var wire 1 # CI $end
$var wire 1 $ CO $end
$var wire 1 % S $end
$scope module i1 $end
$var wire 1 & gnd $end
$var wire 1 ' vcc $end
$var wire 1 ( unknown $end
$var wire 1 ) devoe $end
$var wire 1 * devclrn $end
$var wire 1 + devpor $end
$var wire 1 , ww_devoe $end
$var wire 1 - ww_devclrn $end
$var wire 1 . ww_devpor $end
$var wire 1 / ww_A $end
$var wire 1 0 ww_B $end
$var wire 1 1 ww_CI $end
$var wire 1 2 ww_CO $end
$var wire 1 3 ww_S $end
$var wire 1 4 \CO~output_o\ $end
$var wire 1 5 \S~output_o\ $end
$var wire 1 6 \B~input_o\ $end
$var wire 1 7 \CI~input_o\ $end
$var wire 1 8 \A~input_o\ $end
$var wire 1 9 \CO~0_combout\ $end
$var wire 1 : \S~0_combout\ $end
$upscope $end
$upscope $end
$enddefinitions $end
#0
$dumpvars
0!
0"
0#
0$
0%
0&
1'
x(
1)
1*
1+
1,
1-
1.
0/
00
01
02
03
04
05
06
07
08
09
0:
$end
#40000
1!
1/
18
1:
15
13
1%
#80000
0!
1"
0/
10
16
08
#120000
1!
1/
18
19
0:
05
14
03
12
0%
1$
#160000
0!
0"
1#
0/
00
11
17
06
08
09
1:
15
04
13
02
1%
0$
#200000
1!
1/
18
19
0:
05
14
03
12
0%
1$
#240000
0!
1"
0/
10
16
08
#280000
1!
1/
18
1:
15
13
1%
#320000
0!
0"
0#
0/
00
01
07
06
08
09
0:
05
04
03
02
0%
0$
#360000
1!
1/
18
1:
15
13
1%
#400000
0!
1"
0/
10
16
08
#440000
1!
1/
18
19
0:
05
14
03
12
0%
1$
#480000
0!
0"
1#
0/
00
11
17
06
08
09
1:
15
04
13
02
1%
0$
#520000
1!
1/
18
19
0:
05
14
03
12
0%
1$
#560000
0!
1"
0/
10
16
08
#600000
1!
1/
18
1:
15
13
1%
#640000
0!
0"
0#
0/
00
01
07
06
08
09
0:
05
04
03
02
0%
0$
#680000
1!
1/
18
1:
15
13
1%
#720000
0!
1"
0/
10
16
08
#760000
1!
1/
18
19
0:
05
14
03
12
0%
1$
#800000
0!
0"
1#
0/
00
11
17
06
08
09
1:
15
04
13
02
1%
0$
#840000
1!
1/
18
19
0:
05
14
03
12
0%
1$
#880000
0!
1"
0/
10
16
08
#920000
1!
1/
18
1:
15
13
1%
#960000
0!
0"
0#
0/
00
01
07
06
08
09
0:
05
04
03
02
0%
0$
