MultiBC/simulation/qsim/MultiBC.msim.vcd
$comment
	File created using the following command:
		vcd file MultiBC.msim.vcd -direction
$end
$date
	Thu Oct 30 16:03:58 2025
$end
$version
	ModelSim Version 10.1d
$end
$timescale
	1ps
$end
$scope module multibc_vhd_vec_tst $end
$var wire 1 ! Clk $end
$var wire 1 " IA0 $end
$var wire 1 # IA1 $end
$var wire 1 $ IB0 $end
$var wire 1 % IB1 $end
$var wire 1 & P0 $end
$var wire 1 ' P1 $end
$var wire 1 ( P2 $end
$var wire 1 ) P3 $end
$var wire 1 * P4 $end
$var wire 1 + S1 $end
$var wire 1 , S2 $end
$var wire 1 - S3 $end
$var wire 1 . S4 $end
$var wire 1 / S5 $end
$var wire 1 0 S6 $end
$scope module i1 $end
$var wire 1 1 gnd $end
$var wire 1 2 vcc $end
$var wire 1 3 unknown $end
$var wire 1 4 devoe $end
$var wire 1 5 devclrn $end
$var wire 1 6 devpor $end
$var wire 1 7 ww_devoe $end
$var wire 1 8 ww_devclrn $end
$var wire 1 9 ww_devpor $end
$var wire 1 : ww_P0 $end
$var wire 1 ; ww_Clk $end
$var wire 1 < ww_IB0 $end
$var wire 1 = ww_IA0 $end
$var wire 1 > ww_P1 $end
$var wire 1 ? ww_S1 $end
$var wire 1 @ ww_IA1 $end
$var wire 1 A ww_S4 $end
$var wire 1 B ww_IB1 $end
$var wire 1 C ww_P2 $end
$var wire 1 D ww_S2 $end
$var wire 1 E ww_S5 $end
$var wire 1 F ww_P3 $end
$var wire 1 G ww_S3 $end
$var wire 1 H ww_S6 $end
$var wire 1 I ww_P4 $end
$var wire 1 J \Clk~inputclkctrl_INCLK_bus\ [3] $end
$var wire 1 K \Clk~inputclkctrl_INCLK_bus\ [2] $end
$var wire 1 L \Clk~inputclkctrl_INCLK_bus\ [1] $end
$var wire 1 M \Clk~inputclkctrl_INCLK_bus\ [0] $end
$var wire 1 N \P0~output_o\ $end
$var wire 1 O \P1~output_o\ $end
$var wire 1 P \S1~output_o\ $end
$var wire 1 Q \S4~output_o\ $end
$var wire 1 R \P2~output_o\ $end
$var wire 1 S \S2~output_o\ $end
$var wire 1 T \S5~output_o\ $end
$var wire 1 U \P3~output_o\ $end
$var wire 1 V \S3~output_o\ $end
$var wire 1 W \S6~output_o\ $end
$var wire 1 X \P4~output_o\ $end
$var wire 1 Y \Clk~input_o\ $end
$var wire 1 Z \Clk~inputclkctrl_outclk\ $end
$var wire 1 [ \IA0~input_o\ $end
$var wire 1 \ \inst17~feeder_combout\ $end
$var wire 1 ] \inst17~q\ $end
$var wire 1 ^ \IB0~input_o\ $end
$var wire 1 _ \inst16~feeder_combout\ $end
$var wire 1 ` \inst16~q\ $end
$var wire 1 a \inst14~combout\ $end
$var wire 1 b \inst11~q\ $end
$var wire 1 c \IA1~input_o\ $end
$var wire 1 d \inst19~feeder_combout\ $end
$var wire 1 e \inst19~q\ $end
$var wire 1 f \IB1~input_o\ $end
$var wire 1 g \inst18~feeder_combout\ $end
$var wire 1 h \inst18~q\ $end
$var wire 1 i \inst3|S~combout\ $end
$var wire 1 j \inst10~q\ $end
$var wire 1 k \inst15~combout\ $end
$var wire 1 l \inst33~0_combout\ $end
$var wire 1 m \inst4|S~0_combout\ $end
$var wire 1 n \inst12~q\ $end
$var wire 1 o \inst34~combout\ $end
$var wire 1 p \inst5|S~0_combout\ $end
$var wire 1 q \inst13~q\ $end
$var wire 1 r \inst35~0_combout\ $end
$var wire 1 s \inst5|CO~0_combout\ $end
$upscope $end
$upscope $end
$enddefinitions $end
#0
$dumpvars
0!
0"
0#
0$
0%
0&
0'
0(
0)
0*
0+
0,
0-
0.
0/
00
01
12
x3
14
15
16
17
18
19
0:
0;
0<
0=
0>
0?
0@
0A
0B
0C
0D
0E
0F
0G
0H
0I
0N
0O
0P
0Q
0R
0S
0T
0U
0V
0W
0X
xY
xZ
x[
x\
0]
x^
x_
0`
xa
0b
xc
xd
0e
xf
xg
0h
xi
0j
xk
xl
xm
0n
xo
xp
0q
xr
xs
1J
1K
1L
xM
$end
#522
0a
#644
0r
#662
0k
0s
#675
0i
#676
0p
#705
0[
0^
0c
0f
#706
0Y
0M
#846
0m
#865
0Z
#881
0l
#957
0o
#3239
xX
xI
x*
#3258
xT
xE
x/
#3488
xW
xH
x0
#3781
xV
xG
x-
#3861
0X
0I
0*
#3873
xP
x?
x+
#3931
xQ
xA
x.
#4072
0W
0H
00
#4108
0\
#4121
0g
#4155
0d
#4167
0T
0E
0/
#4289
0_
#4385
0V
0G
0-
#4480
0P
0?
0+
#4712
0Q
0A
0.
#5000
1!
1;
#5153
xS
xD
x,
#5600
1Y
1M
#5774
1Z
#5842
0S
0D
0,
#10000
0!
0;
#10706
0Y
0M
#10865
0Z
#15000
1!
1;
#15600
1Y
1M
#15774
1Z
#20000
0!
0;
#20706
0Y
0M
#20865
0Z
#25000
1!
1;
#25600
1Y
1M
#25774
1Z
#30000
0!
0;
#30706
0Y
0M
#30865
0Z
#35000
1!
1;
#35600
1Y
1M
#35774
1Z
#40000
0!
0;
#40706
0Y
0M
#40865
0Z
#45000
1!
1;
#45600
1Y
1M
#45774
1Z
#50000
0!
0;
#50706
0Y
0M
#50865
0Z
#55000
1!
1;
#55600
1Y
1M
#55774
1Z
#60000
0!
0;
#60706
0Y
0M
#60865
0Z
#65000
1!
1;
#65600
1Y
1M
#65774
1Z
#70000
0!
0;
#70706
0Y
0M
#70865
0Z
#75000
1!
1;
#75600
1Y
1M
#75774
1Z
#80000
0!
1$
0;
1<
#80599
1^
#80706
0Y
0M
#80865
0Z
#83964
1_
#85000
1!
1;
#85600
1Y
1M
#85774
1Z
#87751
1`
#90000
0!
0;
#90706
0Y
0M
#90865
0Z
#95000
1!
1;
#95600
1Y
1M
#95774
1Z
#100000
0!
0;
#100706
0Y
0M
#100865
0Z
#105000
1!
1;
#105600
1Y
1M
#105774
1Z
#110000
0!
0;
#110706
0Y
0M
#110865
0Z
#115000
1!
1;
#115600
1Y
1M
#115774
1Z
#120000
0!
0;
#120706
0Y
0M
#120865
0Z
#125000
1!
1;
#125600
1Y
1M
#125774
1Z
#130000
0!
0;
#130706
0Y
0M
#130865
0Z
#135000
1!
1;
#135600
1Y
1M
#135774
1Z
#140000
0!
0;
#140706
0Y
0M
#140865
0Z
#145000
1!
1;
#145600
1Y
1M
#145774
1Z
#150000
0!
0;
#150706
0Y
0M
#150865
0Z
#155000
1!
1;
#155600
1Y
1M
#155774
1Z
#160000
0!
0;
#160706
0Y
0M
#160865
0Z
#165000
1!
1;
#165600
1Y
1M
#165774
1Z
#170000
0!
0$
1"
0;
0<
1=
#170599
1[
#170705
0^
#170706
0Y
0M
#170865
0Z
#173758
1\
#174289
0_
#175000
1!
1;
#175600
1Y
1M
#175774
1Z
#177751
0`
1]
#180000
0!
0;
#180706
0Y
0M
#180865
0Z
#185000
1!
1;
#185600
1Y
1M
#185774
1Z
#190000
0!
0;
#190706
0Y
0M
#190865
0Z
#195000
1!
1;
#195600
1Y
1M
#195774
1Z
#200000
0!
0;
#200706
0Y
0M
#200865
0Z
#205000
1!
1;
#205600
1Y
1M
#205774
1Z
#210000
0!
0;
#210706
0Y
0M
#210865
0Z
#215000
1!
1;
#215600
1Y
1M
#215774
1Z
#220000
0!
0;
#220706
0Y
0M
#220865
0Z
#225000
1!
1;
#225600
1Y
1M
#225774
1Z
#230000
0!
0;
#230706
0Y
0M
#230865
0Z
#235000
1!
1;
#235600
1Y
1M
#235774
1Z
#240000
0!
0;
#240706
0Y
0M
#240865
0Z
#245000
1!
1;
#245600
1Y
1M
#245774
1Z
#250000
0!
0;
#250706
0Y
0M
#250865
0Z
#255000
1!
1;
#255600
1Y
1M
#255774
1Z
#260000
0!
1$
1%
0;
1<
1B
#260599
1f
1^
#260706
0Y
0M
#260865
0Z
#263784
1g
#263964
1_
#265000
1!
1;
#265600
1Y
1M
#265774
1Z
#267751
1h
1`
#268207
1a
#268481
1p
1m
1i
#268701
1r
#268703
1o
#268721
1l
#270000
0!
0;
#270706
0Y
0M
#270865
0Z
#271961
1T
1E
1/
#272189
1W
1H
10
#272652
1Q
1A
1.
#275000
1!
1;
#275600
1Y
1M
#275774
1Z
#277751
1q
1n
1j
1b
#280000
0!
0;
#280706
0Y
0M
#280865
0Z
#281315
1R
1C
1(
#281325
1O
1>
1'
#281354
1U
1F
1)
#281570
1N
1:
1&
#285000
1!
1;
#285600
1Y
1M
#285774
1Z
#290000
0!
0;
#290706
0Y
0M
#290865
0Z
#295000
1!
1;
#295600
1Y
1M
#295774
1Z
#300000
0!
0"
1#
0;
0=
1@
#300599
1c
#300705
0[
#300706
0Y
0M
#300865
0Z
#303806
1d
#304108
0\
#305000
1!
1;
#305600
1Y
1M
#305774
1Z
#307751
1e
0]
#308374
1k
#308395
0r
#308427
0p
0m
#308429
0a
#308612
1s
#308632
0l
#310000
0!
0;
#310706
0Y
0M
#310865
0Z
#311823
0W
0H
00
#311851
1X
1I
1*
#312155
1V
1G
1-
#312247
1P
1?
1+
#312463
0Q
0A
0.
#313527
1S
1D
1,
#315000
1!
1;
#315600
1Y
1M
#315774
1Z
#317751
0q
0n
0b
#320000
0!
0;
#320706
0Y
0M
#320865
0Z
#321300
0R
0C
0(
#321343
0U
0F
0)
#321544
0N
0:
0&
#325000
1!
1;
#325600
1Y
1M
#325774
1Z
#330000
0!
0;
#330706
0Y
0M
#330865
0Z
#335000
1!
1;
#335600
1Y
1M
#335774
1Z
#340000
0!
0$
0%
0;
0<
0B
#340705
0f
0^
#340706
0Y
0M
#340865
0Z
#344121
0g
#344289
0_
#345000
1!
1;
#345600
1Y
1M
#345774
1Z
#347751
0h
0`
#348275
0i
#348291
1m
#348413
0s
#348597
0m
#348678
0k
#348733
0o
#350000
0!
0;
#350706
0Y
0M
#350865
0Z
#351612
0X
0I
0*
#351943
0T
0E
0/
#352401
0V
0G
0-
#352496
0P
0?
0+
#353858
0S
0D
0,
#355000
1!
1;
#355600
1Y
1M
#355774
1Z
#357751
0j
#360000
0!
0;
#360706
0Y
0M
#360865
0Z
#361311
0O
0>
0'
#365000
1!
1;
#365600
1Y
1M
#365774
1Z
#370000
0!
0;
#370706
0Y
0M
#370865
0Z
#375000
1!
1;
#375600
1Y
1M
#375774
1Z
#380000
0!
0;
#380706
0Y
0M
#380865
0Z
#385000
1!
1;
#385600
1Y
1M
#385774
1Z
#390000
0!
0;
#390706
0Y
0M
#390865
0Z
#395000
1!
1;
#395600
1Y
1M
#395774
1Z
#400000
0!
0;
#400706
0Y
0M
#400865
0Z
#405000
1!
1;
#405600
1Y
1M
#405774
1Z
#410000
0!
1"
0;
1=
#410599
1[
#410706
0Y
0M
#410865
0Z
#413758
1\
#415000
1!
1;
#415600
1Y
1M
#415774
1Z
#417751
1]
#420000
0!
1$
1%
0;
1<
1B
#420599
1f
1^
#420706
0Y
0M
#420865
0Z
#423784
1g
#423964
1_
#425000
1!
1;
#425600
1Y
1M
#425774
1Z
#427751
1h
1`
#428207
1a
#428208
1p
#428209
1m
1i
#428465
0p
#428472
0i
#428504
0m
#428633
1k
#428700
1s
#428721
1l
#430000
0!
0;
#430706
0Y
0M
#430865
0Z
#431939
1X
1I
1*
#432414
1V
1G
1-
#432506
1P
1?
1+
#432652
1Q
1A
1.
#433786
1S
1D
1,
#435000
1!
1;
#435600
1Y
1M
#435774
1Z
#437751
1b
#440000
0!
0;
#440706
0Y
0M
#440865
0Z
#441570
1N
1:
1&
#445000
1!
1;
#445600
1Y
1M
#445774
1Z
#450000
0!
0;
#450706
0Y
0M
#450865
0Z
#455000
1!
1;
#455600
1Y
1M
#455774
1Z
#460000
0!
0;
#460706
0Y
0M
#460865
0Z
#465000
1!
1;
#465600
1Y
1M
#465774
1Z
#470000
0!
0;
#470706
0Y
0M
#470865
0Z
#475000
1!
1;
#475600
1Y
1M
#475774
1Z
#480000
0!
0;
#480706
0Y
0M
#480865
0Z
#485000
1!
1;
#485600
1Y
1M
#485774
1Z
#490000
0!
0;
#490706
0Y
0M
#490865
0Z
#495000
1!
1;
#495600
1Y
1M
#495774
1Z
#500000
0!
0$
0;
0<
#500705
0^
#500706
0Y
0M
#500865
0Z
#504289
0_
#505000
1!
1;
#505600
1Y
1M
#505774
1Z
#507751
0`
#508273
0a
#508291
1i
#508413
0s
#508678
0k
#510000
0!
0"
0#
0;
0=
0@
#510705
0c
0[
#510706
0Y
0M
#510865
0Z
#511612
0X
0I
0*
#512401
0V
0G
0-
#512496
0P
0?
0+
#513858
0S
0D
0,
#514108
0\
#514155
0d
#515000
1!
1;
#515600
1Y
1M
#515774
1Z
#517751
1j
0e
0b
0]
#518411
1o
#518426
0i
#518433
1m
#518610
0m
#518632
0l
#518708
0o
#520000
0!
0;
#520706
0Y
0M
#520865
0Z
#521325
1O
1>
1'
#521544
0N
0:
0&
#521669
1T
1E
1/
#521918
0T
0E
0/
#522463
0Q
0A
0.
#525000
1!
1;
#525600
1Y
1M
#525774
1Z
#527751
0j
#530000
0!
0;
#530706
0Y
0M
#530865
0Z
#531311
0O
0>
0'
#535000
1!
1;
#535600
1Y
1M
#535774
1Z
#540000
0!
0;
#540706
0Y
0M
#540865
0Z
#545000
1!
1;
#545600
1Y
1M
#545774
1Z
#550000
0!
0;
#550706
0Y
0M
#550865
0Z
#555000
1!
1;
#555600
1Y
1M
#555774
1Z
#560000
0!
1"
0;
1=
#560599
1[
#560706
0Y
0M
#560865
0Z
#563758
1\
#565000
1!
1;
#565600
1Y
1M
#565774
1Z
#567751
1]
#568339
1i
#568340
1p
1m
#568360
1r
1o
#568624
1l
#570000
0!
0;
#570706
0Y
0M
#570865
0Z
#571618
1T
1E
1/
#571848
1W
1H
10
#572555
1Q
1A
1.
#575000
1!
1;
#575600
1Y
1M
#575774
1Z
#577751
1q
1n
1j
#580000
0!
0;
#580706
0Y
0M
#580865
0Z
#581315
1R
1C
1(
#581325
1O
1>
1'
#581354
1U
1F
1)
#585000
1!
1;
#585600
1Y
1M
#585774
1Z
#590000
0!
0;
#590706
0Y
0M
#590865
0Z
#595000
1!
1;
#595600
1Y
1M
#595774
1Z
#600000
0!
0"
0;
0=
#600705
0[
#600706
0Y
0M
#600865
0Z
#604108
0\
#605000
1!
1;
#605600
1Y
1M
#605774
1Z
#607751
0]
#608395
0r
0o
#608426
0i
#608427
0p
0m
#608632
0l
#610000
0!
0;
#610706
0Y
0M
#610865
0Z
#611605
0T
0E
0/
#611823
0W
0H
00
#612463
0Q
0A
0.
#615000
1!
1;
#615600
1Y
1M
#615774
1Z
#617751
0q
0n
0j
#620000
0!
0;
#620706
0Y
0M
#620865
0Z
#621300
0R
0C
0(
#621311
0O
0>
0'
#621343
0U
0F
0)
#625000
1!
1;
#625600
1Y
1M
#625774
1Z
#630000
0!
0;
#630706
0Y
0M
#630865
0Z
#635000
1!
1;
#635600
1Y
1M
#635774
1Z
#640000
0!
1"
1#
0%
0;
1=
1@
0B
#640599
1c
1[
#640705
0f
#640706
0Y
0M
#640865
0Z
#643758
1\
#643806
1d
#644121
0g
#645000
1!
1;
#645600
1Y
1M
#645774
1Z
#647751
0h
1e
1]
#648339
1i
#648340
1p
1m
#648360
1r
1o
#648507
0p
#648509
0m
#648566
0i
#648639
0r
#648645
0o
#650000
0!
0;
#650706
0Y
0M
#650865
0Z
#651618
1T
1E
1/
#651848
1W
1H
10
#651855
0T
0E
0/
#652067
0W
0H
00
#655000
1!
1;
#655600
1Y
1M
#655774
1Z
#660000
0!
0;
#660706
0Y
0M
#660865
0Z
#665000
1!
1;
#665600
1Y
1M
#665774
1Z
#670000
0!
0;
#670706
0Y
0M
#670865
0Z
#675000
1!
1;
#675600
1Y
1M
#675774
1Z
#680000
0!
0;
#680706
0Y
0M
#680865
0Z
#685000
1!
1;
#685600
1Y
1M
#685774
1Z
#690000
0!
0;
#690706
0Y
0M
#690865
0Z
#695000
1!
1;
#695600
1Y
1M
#695774
1Z
#700000
0!
0;
#700706
0Y
0M
#700865
0Z
#705000
1!
1;
#705600
1Y
1M
#705774
1Z
#710000
0!
0;
#710706
0Y
0M
#710865
0Z
#715000
1!
1;
#715600
1Y
1M
#715774
1Z
#720000
0!
0;
#720706
0Y
0M
#720865
0Z
#725000
1!
1;
#725600
1Y
1M
#725774
1Z
#730000
0!
0;
#730706
0Y
0M
#730865
0Z
#735000
1!
1;
#735600
1Y
1M
#735774
1Z
#740000
0!
0;
#740706
0Y
0M
#740865
0Z
#745000
1!
1;
#745600
1Y
1M
#745774
1Z
#750000
0!
0"
0;
0=
#750705
0[
#750706
0Y
0M
#750865
0Z
#754108
0\
#755000
1!
1;
#755600
1Y
1M
#755774
1Z
#757751
0]
#760000
0!
0;
#760706
0Y
0M
#760865
0Z
#765000
1!
1;
#765600
1Y
1M
#765774
1Z
#770000
0!
1%
0;
1B
#770599
1f
#770706
0Y
0M
#770865
0Z
#773784
1g
#775000
1!
1;
#775600
1Y
1M
#775774
1Z
#777751
1h
#778481
1m
#778703
1o
#780000
0!
0;
#780706
0Y
0M
#780865
0Z
#781961
1T
1E
1/
#785000
1!
1;
#785600
1Y
1M
#785774
1Z
#787751
1n
#790000
0!
0;
#790706
0Y
0M
#790865
0Z
#791315
1R
1C
1(
#795000
1!
1;
#795600
1Y
1M
#795774
1Z
#800000
0!
0;
#800706
0Y
0M
#800865
0Z
#805000
1!
1;
#805600
1Y
1M
#805774
1Z
#810000
0!
0;
#810706
0Y
0M
#810865
0Z
#815000
1!
1;
#815600
1Y
1M
#815774
1Z
#820000
0!
0;
#820706
0Y
0M
#820865
0Z
#825000
1!
1;
#825600
1Y
1M
#825774
1Z
#830000
0!
0;
#830706
0Y
0M
#830865
0Z
#835000
1!
1;
#835600
1Y
1M
#835774
1Z
#840000
0!
0%
0;
0B
#840705
0f
#840706
0Y
0M
#840865
0Z
#844121
0g
#845000
1!
1;
#845600
1Y
1M
#845774
1Z
#847751
0h
#848597
0m
#848733
0o
#850000
0!
1"
0#
0;
1=
0@
#850599
1[
#850705
0c
#850706
0Y
0M
#850865
0Z
#851943
0T
0E
0/
#853758
1\
#854155
0d
#855000
1!
1;
#855600
1Y
1M
#855774
1Z
#857751
0n
0e
1]
#860000
0!
0;
#860706
0Y
0M
#860865
0Z
#861300
0R
0C
0(
#865000
1!
1;
#865600
1Y
1M
#865774
1Z
#870000
0!
1$
0;
1<
#870599
1^
#870706
0Y
0M
#870865
0Z
#873964
1_
#875000
1!
1;
#875600
1Y
1M
#875774
1Z
#877751
1`
#878207
1a
#880000
0!
0;
#880706
0Y
0M
#880865
0Z
#885000
1!
1;
#885600
1Y
1M
#885774
1Z
#887751
1b
#890000
0!
0;
#890706
0Y
0M
#890865
0Z
#891570
1N
1:
1&
#895000
1!
1;
#895600
1Y
1M
#895774
1Z
#900000
0!
1%
0;
1B
#900599
1f
#900706
0Y
0M
#900865
0Z
#903784
1g
#905000
1!
1;
#905600
1Y
1M
#905774
1Z
#907751
1h
#908481
1p
1m
1i
#908701
1r
#908703
1o
#908721
1l
#910000
0!
0;
#910706
0Y
0M
#910865
0Z
#911961
1T
1E
1/
#912189
1W
1H
10
#912652
1Q
1A
1.
#915000
1!
1;
#915600
1Y
1M
#915774
1Z
#917751
1q
1n
1j
#920000
0!
0$
0;
0<
#920705
0^
#920706
0Y
0M
#920865
0Z
#921315
1R
1C
1(
#921325
1O
1>
1'
#921354
1U
1F
1)
#924289
0_
#925000
1!
1;
#925600
1Y
1M
#925774
1Z
#927751
0`
#928273
0a
#930000
0!
0;
#930706
0Y
0M
#930865
0Z
#935000
1!
1;
#935600
1Y
1M
#935774
1Z
#937751
0b
#940000
0!
0;
#940706
0Y
0M
#940865
0Z
#941544
0N
0:
0&
#945000
1!
1;
#945600
1Y
1M
#945774
1Z
#950000
0!
0;
#950706
0Y
0M
#950865
0Z
#955000
1!
1;
#955600
1Y
1M
#955774
1Z
#960000
0!
0%
0;
0B
#960705
0f
#960706
0Y
0M
#960865
0Z
#964121
0g
#965000
1!
1;
#965600
1Y
1M
#965774
1Z
#967751
0h
#968558
0p
#968566
0i
#968597
0m
#968733
0r
0o
#968750
0l
#970000
0!
0;
#970706
0Y
0M
#970865
0Z
#971943
0T
0E
0/
#972161
0W
0H
00
#972581
0Q
0A
0.
#975000
1!
1;
#975600
1Y
1M
#975774
1Z
#977751
0q
0n
0j
#980000
0!
0;
#980706
0Y
0M
#980865
0Z
#981300
0R
0C
0(
#981311
0O
0>
0'
#981343
0U
0F
0)
#985000
1!
1;
#985600
1Y
1M
#985774
1Z
#990000
0!
0"
0;
0=
#990705
0[
#990706
0Y
0M
#990865
0Z
#994108
0\
#995000
1!
1;
#995600
1Y
1M
#995774
1Z
#997751
0]
